{
    "version": "1.0",

    "options" : {
    },
    "datasinks":{
	"Console":{
            "sinktype": "ConsoleSink"
        },
	"File":{
            "sinktype": "CSVSink",
            "directory": "myOutputData"
        },
	"db": {
            "sinktype": "InfluxDBSink",
            "host": "127.0.0.1",
            "port": 8086,
            "database": "dcsDB",
            "username": "userName",
            "password": "password",
	    "precision": 5
        }
    },
    "datastreams":{
	"PowerSupplies":{
	    "sinks": ["Console", "db"]
	},
	"Climate":{
	    "sinks": ["Console"]
	}
    },
    "devices": {
	"PS" : {
	    "hw-type": "PS",
	    "hw-model": "RigolDP832",
	    "communication": {
		"protocol" : "CharDeviceCom",
		"port" : "/dev/usbtmc0"
	    }
	},
	"PS2": {
	    "hw-type": "PS",
	    "hw-model": "AgilentPs",
	    "communication": {
		"protocol" : "GPIBSerialCom",
		"port" : "/dev/ttyUSB1",
		"gpib_addr": 3
	    }
	}
    },
    "channels": {
	"low-voltage" : {
	    "hw-type" : "PS",
	    "device": "PS",
	    "channel" : 1,
	    "program": {
		"maxvoltage": 5
	    }
	},
	"peltier" : {
	    "hw-type" : "PS",
	    "device": "PS",
	    "channel" : 2
	},
	"low-voltage_modA": {
	    "hw-type" : "PS",	    
	    "device": "PS2",
	    "channel" : 1
	},
	"low-voltage_modB": {
	    "hw-type" : "PS",
	    "device": "PS2",
	    "channel" : 2
	},
	"low-voltage_modC": {
	    "hw-type" : "PS",	    
	    "device": "PS2",
	    "channel" : 3
	}
    }	    
}
